{"photos":{"page":1,"pages":1850,"perpage":100,"total":"184947","photo":[{"id":"28263709069","owner":"120961244@N05","secret":"1c990b4a59","server":"4661","farm":5,"title":"another street mom takes over","ispublic":1,"isfriend":0,"isfamily":0},{"id":"26169508648","owner":"31452734@N03","secret":"0e30eb24d5","server":"4705","farm":5,"title":"A37727769-Keanu-1","ispublic":1,"isfriend":0,"isfamily":0},{"id":"39144230335","owner":"25576158@N00","secret":"4c738739df","server":"4672","farm":5,"title":"Tussi \"hang-paw\"","ispublic":1,"isfriend":0,"isfamily":0},{"id":"26169402658","owner":"147856953@N07","secret":"39ae94fcec","server":"4602","farm":5,"title":"Colorado \/ Olympus OM1 \/ Fuji C200","ispublic":1,"isfriend":0,"isfamily":0},{"id":"26169284998","owner":"138202255@N02","secret":"7046d93917","server":"4724","farm":5,"title":"Veronica Avluv And Zoey Monroe Cougar Kittens And","ispublic":1,"isfriend":0,"isfamily":0},{"id":"28263312009","owner":"57603959@N08","secret":"2b3a38fdec","server":"4658","farm":5,"title":"Ti vedo Umana!","ispublic":1,"isfriend":0,"isfamily":0},{"id":"40042268111","owner":"148036032@N07","secret":"026afb2b2d","server":"4655","farm":5,"title":"Check the cutest kittens: http:\/\/thecaturday.us","ispublic":1,"isfriend":0,"isfamily":0},{"id":"26169045388","owner":"124651729@N04","secret":"4e42c3d858","server":"4630","farm":5,"title":"Kiwi in a Box","ispublic":1,"isfriend":0,"isfamily":0},{"id":"39331706364","owner":"99699280@N07","secret":"0e3aa54448","server":"4613","farm":5,"title":"20180202_100318","ispublic":1,"isfriend":0,"isfamily":0},{"id":"25170352617","owner":"96531336@N07","secret":"95042b2798","server":"4611","farm":5,"title":"psy i koty_07","ispublic":1,"isfriend":0,"isfamily":0},{"id":"40042048231","owner":"96531336@N07","secret":"b2c0f8155a","server":"4674","farm":5,"title":"psy i koty_08","ispublic":1,"isfriend":0,"isfamily":0},{"id":"39331619554","owner":"151733483@N06","secret":"062c369328","server":"4631","farm":5,"title":"ddJ2vs2","ispublic":1,"isfriend":0,"isfamily":0},{"id":"39331405364","owner":"123901787@N06","secret":"6532419477","server":"4618","farm":5,"title":"","ispublic":1,"isfriend":0,"isfamily":0},{"id":"39331387284","owner":"157912074@N02","secret":"fa9db247fd","server":"4700","farm":5,"title":"Mandu on vinyl","ispublic":1,"isfriend":0,"isfamily":0},{"id":"39143182005","owner":"151372730@N02","secret":"60c56eff63","server":"4650","farm":5,"title":"Hiding Barn Kitten","ispublic":1,"isfriend":0,"isfamily":0},{"id":"25170066257","owner":"134959482@N06","secret":"744610c371","server":"4621","farm":5,"title":"Cats & Dogs Available for Adoption in St Augustine!","ispublic":1,"isfriend":0,"isfamily":0},{"id":"25169998717","owner":"26267225@N03","secret":"9f3485be67","server":"4603","farm":5,"title":"Cats","ispublic":1,"isfriend":0,"isfamily":0},{"id":"40041658821","owner":"26267225@N03","secret":"627cb358b1","server":"4696","farm":5,"title":"Cats","ispublic":1,"isfriend":0,"isfamily":0},{"id":"40009124142","owner":"140165941@N02","secret":"b16a21ed8d","server":"4744","farm":5,"title":"Little Hunter","ispublic":1,"isfriend":0,"isfamily":0},{"id":"40009086402","owner":"66073520@N07","secret":"f580899bb8","server":"4607","farm":5,"title":"Basya","ispublic":1,"isfriend":0,"isfamily":0},{"id":"40009065122","owner":"129739760@N02","secret":"bf365f43a5","server":"4614","farm":5,"title":"DSCF1319","ispublic":1,"isfriend":0,"isfamily":0},{"id":"25169750297","owner":"155882074@N02","secret":"4a1a8653e3","server":"4657","farm":5,"title":"Ontvangen kaart","ispublic":1,"isfriend":0,"isfamily":0},{"id":"26168237048","owner":"155882074@N02","secret":"05dfafe02d","server":"4745","farm":5,"title":"Ontvangen kaart","ispublic":1,"isfriend":0,"isfamily":0},{"id":"25169849847","owner":"89510495@N07","secret":"c4139e7599","server":"4749","farm":5,"title":"8 (2)","ispublic":1,"isfriend":0,"isfamily":0},{"id":"40008746242","owner":"151372730@N02","secret":"ddf0a77f37","server":"4603","farm":5,"title":"May Litter","ispublic":1,"isfriend":0,"isfamily":0},{"id":"40041313671","owner":"148036032@N07","secret":"e2165dbe90","server":"4703","farm":5,"title":"Check the cutest kittens: http:\/\/thecaturday.us","ispublic":1,"isfriend":0,"isfamily":0},{"id":"39330786604","owner":"22645782@N00","secret":"c721625e55","server":"4677","farm":5,"title":"\"Stahp. Stahp.\" . . . . . . #productivitycat #cats #kittens #lookatthatpaw #catlady4life #catstagram #catsofinstagram #persiancat #longhairedcat #whatsonmydesk #whereiwork #productive #productiveworkplace #friyay","ispublic":1,"isfriend":0,"isfamily":0},{"id":"40041123411","owner":"137761942@N03","secret":"4ecf33dd6e","server":"4615","farm":5,"title":"Why people get bitten by nice dogs?  3 Lessons You Can Benefit From Today","ispublic":1,"isfriend":0,"isfamily":0},{"id":"40040932091","owner":"100071386@N07","secret":"4c8d6ce2cf","server":"4670","farm":5,"title":"Avanti @ Fetish Fair 2018!","ispublic":1,"isfriend":0,"isfamily":0},{"id":"39142449495","owner":"139299419@N05","secret":"d2b00dd7cd","server":"4627","farm":5,"title":"marco02021801","ispublic":1,"isfriend":0,"isfamily":0},{"id":"26167691498","owner":"129440575@N07","secret":"da7131dfcf","server":"4760","farm":5,"title":"2018","ispublic":1,"isfriend":0,"isfamily":0},{"id":"40040951291","owner":"129440575@N07","secret":"4feb416428","server":"4763","farm":5,"title":"2018","ispublic":1,"isfriend":0,"isfamily":0},{"id":"26167604628","owner":"145297541@N05","secret":"16048e476f","server":"4701","farm":5,"title":"Good bye, little angel","ispublic":1,"isfriend":0,"isfamily":0},{"id":"40008091192","owner":"145297541@N05","secret":"16b30477fd","server":"4700","farm":5,"title":"Peanut \u2665","ispublic":1,"isfriend":0,"isfamily":0},{"id":"40040869281","owner":"145297541@N05","secret":"d0959290e4","server":"4694","farm":5,"title":"Tiny baby","ispublic":1,"isfriend":0,"isfamily":0},{"id":"25169140467","owner":"145297541@N05","secret":"52822a4405","server":"4668","farm":5,"title":"Tiny baby","ispublic":1,"isfriend":0,"isfamily":0},{"id":"40040911571","owner":"77435771@N08","secret":"552950e095","server":"4614","farm":5,"title":"Blue Russian Cat","ispublic":1,"isfriend":0,"isfamily":0},{"id":"28261646259","owner":"158827073@N04","secret":"f86c8db1f5","server":"4649","farm":5,"title":"n01","ispublic":1,"isfriend":0,"isfamily":0},{"id":"39330326124","owner":"158827073@N04","secret":"e8bf9fa9e4","server":"4669","farm":5,"title":"n04","ispublic":1,"isfriend":0,"isfamily":0},{"id":"39330326264","owner":"158827073@N04","secret":"cacd742100","server":"4661","farm":5,"title":"n03","ispublic":1,"isfriend":0,"isfamily":0},{"id":"39142226685","owner":"151978315@N04","secret":"c27b45941e","server":"4755","farm":5,"title":"Photo","ispublic":1,"isfriend":0,"isfamily":0},{"id":"40040815531","owner":"96652804@N04","secret":"f388b0eac3","server":"4623","farm":5,"title":"L 12 Logan","ispublic":1,"isfriend":0,"isfamily":0},{"id":"40040814741","owner":"96652804@N04","secret":"7481aa5d1b","server":"4722","farm":5,"title":"L 12 Logan","ispublic":1,"isfriend":0,"isfamily":0},{"id":"40040813841","owner":"96652804@N04","secret":"9d530153df","server":"4766","farm":5,"title":"L 12 Logan","ispublic":1,"isfriend":0,"isfamily":0},{"id":"40040812531","owner":"96652804@N04","secret":"1a5a12da6e","server":"4708","farm":5,"title":"L 12 Logan","ispublic":1,"isfriend":0,"isfamily":0},{"id":"26167489998","owner":"96652804@N04","secret":"c731f48494","server":"4603","farm":5,"title":"L 12 Logan","ispublic":1,"isfriend":0,"isfamily":0},{"id":"26167489518","owner":"96652804@N04","secret":"b9eea7f4b3","server":"4676","farm":5,"title":"L 12 Logan","ispublic":1,"isfriend":0,"isfamily":0},{"id":"26167484798","owner":"96652804@N04","secret":"e3a3c0e004","server":"4697","farm":5,"title":"L 12 Logan","ispublic":1,"isfriend":0,"isfamily":0},{"id":"26167484068","owner":"96652804@N04","secret":"432db29891","server":"4626","farm":5,"title":"L 12 Logan","ispublic":1,"isfriend":0,"isfamily":0},{"id":"26167481288","owner":"96652804@N04","secret":"decc0015d3","server":"4704","farm":5,"title":"L 12 Logan","ispublic":1,"isfriend":0,"isfamily":0},{"id":"26167479558","owner":"96652804@N04","secret":"f5ec80b7bb","server":"4713","farm":5,"title":"L 12 Logan","ispublic":1,"isfriend":0,"isfamily":0},{"id":"28261562369","owner":"96652804@N04","secret":"c7a7ab4a3b","server":"4651","farm":5,"title":"L 12 Logan","ispublic":1,"isfriend":0,"isfamily":0},{"id":"39330251964","owner":"138829356@N07","secret":"854b317c9a","server":"4648","farm":5,"title":"Purr","ispublic":1,"isfriend":0,"isfamily":0},{"id":"28261440229","owner":"138829356@N07","secret":"532f32938b","server":"4753","farm":5,"title":"Purr","ispublic":1,"isfriend":0,"isfamily":0},{"id":"40040721591","owner":"58210871@N06","secret":"62166e5ef4","server":"4713","farm":5,"title":"Kitty Friday","ispublic":1,"isfriend":0,"isfamily":0},{"id":"40007529112","owner":"134066368@N07","secret":"832ff62523","server":"4702","farm":5,"title":"IMG_0092","ispublic":1,"isfriend":0,"isfamily":0},{"id":"39329784504","owner":"134066368@N07","secret":"e80ff1ab3e","server":"4606","farm":5,"title":"IMG_0171","ispublic":1,"isfriend":0,"isfamily":0},{"id":"40040504851","owner":"158028554@N05","secret":"9c32f3f0c3","server":"4678","farm":5,"title":"Those eyes \ud83d\ude0d Video by: @nataliyasavannahscat #cuteanimalplus","ispublic":1,"isfriend":0,"isfamily":0},{"id":"40040433151","owner":"148036032@N07","secret":"bb78e4a251","server":"4602","farm":5,"title":"Check the cutest kittens: http:\/\/thecaturday.us","ispublic":1,"isfriend":0,"isfamily":0},{"id":"28261116579","owner":"58067977@N06","secret":"a11d85d2e6","server":"4704","farm":5,"title":"000027030013","ispublic":1,"isfriend":0,"isfamily":0},{"id":"25168582247","owner":"63306768@N00","secret":"5848a6d07f","server":"4608","farm":5,"title":"Stefanel","ispublic":1,"isfriend":0,"isfamily":0},{"id":"39141650525","owner":"110174665@N07","secret":"5e63382072","server":"4616","farm":5,"title":"DSC_5993","ispublic":1,"isfriend":0,"isfamily":0},{"id":"40040129291","owner":"110174665@N07","secret":"baae7c8fc1","server":"4768","farm":5,"title":"DSC_6012","ispublic":1,"isfriend":0,"isfamily":0},{"id":"40040128641","owner":"110174665@N07","secret":"ed7c5bbbbb","server":"4660","farm":5,"title":"DSC_6013","ispublic":1,"isfriend":0,"isfamily":0},{"id":"25168442697","owner":"110174665@N07","secret":"16e4659653","server":"4724","farm":5,"title":"DSC_6076","ispublic":1,"isfriend":0,"isfamily":0},{"id":"26166924718","owner":"110174665@N07","secret":"cf453bfba9","server":"4708","farm":5,"title":"DSC_6024","ispublic":1,"isfriend":0,"isfamily":0},{"id":"39329254614","owner":"148036032@N07","secret":"cdf3fc20ab","server":"4604","farm":5,"title":"Check the cutest kittens: http:\/\/thecaturday.us","ispublic":1,"isfriend":0,"isfamily":0},{"id":"28260275809","owner":"149199805@N06","secret":"d953b5cbaa","server":"4660","farm":5,"title":"Kitten 1966","ispublic":1,"isfriend":0,"isfamily":0},{"id":"26164915458","owner":"133674920@N04","secret":"bffedc8a51","server":"4653","farm":5,"title":"IMG_E7293","ispublic":1,"isfriend":0,"isfamily":0},{"id":"25167915297","owner":"46925233@N00","secret":"53cd879775","server":"4615","farm":5,"title":"Enjoying a ray of sunshine...","ispublic":1,"isfriend":0,"isfamily":0},{"id":"26166280098","owner":"54348069@N00","secret":"13fdd3d997","server":"4659","farm":5,"title":"Thunder and Sunshine. #\ud83d\ude3a\u2600\u2601\u26a1 #\ud83d\ude3b #\ud83d\ude3a #cloudythecat #sunshinethecat #teamcatmojo #thunderthecat #cat #cats #thedailykitten #catstagram #catsofinstagram #GlobalKitties #cute #kitten #kitty #neko #pet #pets #petstagram #","ispublic":1,"isfriend":0,"isfamily":0},{"id":"39328745434","owner":"136830606@N03","secret":"6dd3bccf92","server":"4698","farm":5,"title":"Life Beyond Boundaries #pixel2 #cat #innocent #life #kitten","ispublic":1,"isfriend":0,"isfamily":0},{"id":"25167459817","owner":"143003221@N02","secret":"4a187ca022","server":"4666","farm":5,"title":"I kinda like cats","ispublic":1,"isfriend":0,"isfamily":0},{"id":"25167402277","owner":"127850938@N05","secret":"682383b3bd","server":"4669","farm":5,"title":"Hangin' Out","ispublic":1,"isfriend":0,"isfamily":0},{"id":"39328515704","owner":"67089641@N05","secret":"8017fbd935","server":"4718","farm":5,"title":"spotter bcn 7-5-2012 123","ispublic":1,"isfriend":0,"isfamily":0},{"id":"26165633878","owner":"151072996@N08","secret":"5853dbc0b2","server":"4610","farm":5,"title":"my cat","ispublic":1,"isfriend":0,"isfamily":0},{"id":"26165503548","owner":"129643500@N02","secret":"2b666eda0b","server":"4753","farm":5,"title":"1517566097-nhung-buc-anh-duoc-cho-la-chup-bang-galaxy-s9","ispublic":1,"isfriend":0,"isfamily":0},{"id":"25167094497","owner":"129643500@N02","secret":"00d063f72b","server":"4724","farm":5,"title":"1517566083-nhung-buc-anh-duoc-cho-la-chup-bang-galaxy-s9","ispublic":1,"isfriend":0,"isfamily":0},{"id":"39328122684","owner":"139891160@N06","secret":"fbb2fb1990","server":"4612","farm":5,"title":"533232413457848","ispublic":1,"isfriend":0,"isfamily":0},{"id":"28259347589","owner":"139891160@N06","secret":"3ea91a8a6c","server":"4766","farm":5,"title":"465510253563398","ispublic":1,"isfriend":0,"isfamily":0},{"id":"39327679934","owner":"39536136@N08","secret":"37cedae696","server":"4677","farm":5,"title":"A cat sitting on black rock","ispublic":1,"isfriend":0,"isfamily":0},{"id":"39327677974","owner":"39536136@N08","secret":"c0e63b278c","server":"4719","farm":5,"title":"A cat sitting on black rock","ispublic":1,"isfriend":0,"isfamily":0},{"id":"7868140254","owner":"30625665@N00","secret":"3a921f2c5d","server":"8424","farm":9,"title":"7th RULE:","ispublic":1,"isfriend":0,"isfamily":0},{"id":"39327850114","owner":"39935086@N04","secret":"ae0036cbfc","server":"4762","farm":5,"title":"hamster","ispublic":1,"isfriend":0,"isfamily":0},{"id":"39139774125","owner":"123901787@N06","secret":"71f9ff02fc","server":"4677","farm":5,"title":"","ispublic":1,"isfriend":0,"isfamily":0},{"id":"40005522122","owner":"123901787@N06","secret":"74ac148633","server":"4753","farm":5,"title":"","ispublic":1,"isfriend":0,"isfamily":0},{"id":"26165114258","owner":"123901787@N06","secret":"28f5b211d7","server":"4610","farm":5,"title":"","ispublic":1,"isfriend":0,"isfamily":0},{"id":"26165112628","owner":"123901787@N06","secret":"9b957d32bd","server":"4610","farm":5,"title":"","ispublic":1,"isfriend":0,"isfamily":0},{"id":"40038188721","owner":"123901787@N06","secret":"6a021da2f7","server":"4632","farm":5,"title":"","ispublic":1,"isfriend":0,"isfamily":0},{"id":"39327717514","owner":"148036032@N07","secret":"f5d2b92be6","server":"4614","farm":5,"title":"Check the cutest kittens: http:\/\/thecaturday.us","ispublic":1,"isfriend":0,"isfamily":0},{"id":"39327423954","owner":"125451895@N05","secret":"f3ddaf97b0","server":"4667","farm":5,"title":"Machi <3","ispublic":1,"isfriend":0,"isfamily":0},{"id":"39139118285","owner":"133466061@N08","secret":"97288cd983","server":"4763","farm":5,"title":"","ispublic":1,"isfriend":0,"isfamily":0},{"id":"39138997785","owner":"142790510@N05","secret":"65c9c6c1fa","server":"4703","farm":5,"title":"","ispublic":1,"isfriend":0,"isfamily":0},{"id":"39326975954","owner":"30262582@N00","secret":"1e46690517","server":"4741","farm":5,"title":"New photo added to \"Camera Roll\"","ispublic":1,"isfriend":0,"isfamily":0},{"id":"26164423328","owner":"30262582@N00","secret":"6954411492","server":"4621","farm":5,"title":"New photo added to \"Camera Roll\"","ispublic":1,"isfriend":0,"isfamily":0},{"id":"26169874798","owner":"79840505@N07","secret":"d92eb1e9a9","server":"4694","farm":5,"title":"_A923008","ispublic":1,"isfriend":0,"isfamily":0},{"id":"28263956139","owner":"63189170@N04","secret":"944dedfe4c","server":"4696","farm":5,"title":"Lovely kitty and cat bride and groom wedding cake topper, pet wedding cake decoration ideas","ispublic":1,"isfriend":0,"isfamily":0},{"id":"39143662185","owner":"114323979@N03","secret":"1f5afaa74d","server":"4755","farm":5,"title":"","ispublic":1,"isfriend":0,"isfamily":0},{"id":"39330385344","owner":"162476564@N04","secret":"9cd2c65b53","server":"4766","farm":5,"title":"","ispublic":1,"isfriend":0,"isfamily":0},{"id":"40040191111","owner":"78241921@N08","secret":"00d316ea82","server":"4699","farm":5,"title":"Good sleep ..","ispublic":1,"isfriend":0,"isfamily":0}]},"stat":"ok"}
